root@roc-rk3328-cc:/var/volatile/tmp/breakpad# ./crashme
Dump path: /tmp/0798786e-682e-4f79-9b7f1e9f-f15e4657.dmp
Segmentation fault
root@roc-rk3328-cc:/var/volatile/tmp/breakpad# sh stack_decode.sh crashme /tmp/0798786e-682e-4f79-9b7f1e9f-f15e4657.dmp
MODULE Linux arm64 D9555D932042A98800EECBEE1808C8380 crashme
2018-03-09 21:47:39: minidump.cc:5612: INFO: Minidump opened minidump /tmp/0798786e-682e-4f79-9b7f1e9f-f15e4657.dmp
2018-03-09 21:47:39: minidump.cc:5748: INFO: Minidump not byte-swapping minidump
2018-03-09 21:47:39: minidump.cc:6474: INFO: GetStream: type 15 not present
2018-03-09 21:47:39: minidump.cc:6474: INFO: GetStream: type 1197932545 not present
2018-03-09 21:47:39: minidump.cc:6474: INFO: GetStream: type 1197932546 not present
2018-03-09 21:47:40: minidump.cc:2704: INFO: MinidumpModule could not determine version for /var/volatile/tmp/breakpad/crashme
2018-03-09 21:47:40: minidump.cc:2704: INFO: MinidumpModule could not determine version for /lib/libc.so.6
2018-03-09 21:47:40: minidump.cc:2704: INFO: MinidumpModule could not determine version for /lib/libgcc_s.so.1
2018-03-09 21:47:40: minidump.cc:2704: INFO: MinidumpModule could not determine version for /lib/libm.so.6
2018-03-09 21:47:40: minidump.cc:2704: INFO: MinidumpModule could not determine version for /usr/lib/libstdc++.so.6
2018-03-09 21:47:40: minidump.cc:2704: INFO: MinidumpModule could not determine version for /lib/ld-linux-aarch64.so.1
2018-03-09 21:47:40: minidump.cc:2704: INFO: MinidumpModule could not determine version for linux-gate.so
2018-03-09 21:47:40: minidump.cc:2704: INFO: MinidumpModule could not determine version for /var/volatile/tmp/breakpad/crashme
2018-03-09 21:47:40: minidump.cc:2704: INFO: MinidumpModule could not determine version for /lib/libc.so.6
2018-03-09 21:47:40: minidump.cc:2704: INFO: MinidumpModule could not determine version for /lib/libgcc_s.so.1
2018-03-09 21:47:40: minidump.cc:2704: INFO: MinidumpModule could not determine version for /lib/libm.so.6
2018-03-09 21:47:40: minidump.cc:2704: INFO: MinidumpModule could not determine version for /usr/lib/libstdc++.so.6
2018-03-09 21:47:40: minidump.cc:2704: INFO: MinidumpModule could not determine version for /lib/ld-linux-aarch64.so.1
2018-03-09 21:47:40: minidump.cc:2704: INFO: MinidumpModule could not determine version for linux-gate.so
2018-03-09 21:47:40: minidump.cc:6474: INFO: GetStream: type 14 not present
2018-03-09 21:47:40: minidump_processor.cc:187: INFO: Found 2 memory regions.
2018-03-09 21:47:40: minidump_processor.cc:197: INFO: Minidump /tmp/0798786e-682e-4f79-9b7f1e9f-f15e4657.dmp has CPU info, OS info, no Breakpad info, exception, module list, thread list, no dump thread, requesting thread, and no process create time
2018-03-09 21:47:40: minidump.cc:6474: INFO: GetStream: type 24 not present
2018-03-09 21:47:40: minidump_processor.cc:266: INFO: Looking at thread /tmp/0798786e-682e-4f79-9b7f1e9f-f15e4657.dmp:0/1 id 0x185
2018-03-09 21:47:40: minidump.cc:719: INFO: MinidumpContext: looks like ARM64 context
2018-03-09 21:47:40: minidump.cc:719: INFO: MinidumpContext: looks like ARM64 context
2018-03-09 21:47:40: source_line_resolver_base.cc:244: INFO: Loading symbols for module /var/volatile/tmp/breakpad/crashme from memory buffer, size: 236655
2018-03-09 21:47:40: simple_symbol_supplier.cc:199: INFO: No symbol file at ./symbols/libc.so.6/1BDA541524B0ECED75C50F78AA99FA620/libc.so.6.sym
2018-03-09 21:47:40: stackwalker.cc:108: INFO: Couldn't load symbols for: /lib/libc.so.6|1BDA541524B0ECED75C50F78AA99FA620
2018-03-09 21:47:40: minidump_processor.cc:391: INFO: Processed /tmp/0798786e-682e-4f79-9b7f1e9f-f15e4657.dmp
Operating system: Linux
                  0.0.0 Linux 5.15.124-yocto-standard #1 SMP PREEMPT Thu Aug 3 17:53:26 UTC 2023 aarch64
CPU: arm64
     4 CPUs

GPU: UNKNOWN

Crash reason:  SIGSEGV /SEGV_MAPERR
Crash address: 0x0
Process uptime: not available

Thread 0 (crashed)
 0  crashme!crash() [crashme.cpp : 13 + 0x8]
     x0 = 0x0000000000000000    x1 = 0x0000000000000001
     x2 = 0x0000000000000000    x3 = 0x0000000000000001
     x4 = 0x0000000000427668    x5 = 0x000000000000017f
     x6 = 0x0000000000000000    x7 = 0x0000000000000000
     x8 = 0xfffffffffffffff0    x9 = 0x6639653166376239
    x10 = 0x0000ffffb55a86c8   x11 = 0x0000000000000000
    x12 = 0x2d66396531663762   x13 = 0x0000000000000000
    x14 = 0x0000000000000000   x15 = 0x0000000000000000
    x16 = 0x0000ffffb56251d0   x17 = 0x00000000004270b0
    x18 = 0x0000000000000000   x19 = 0x0000ffffe9262b88
    x20 = 0x0000000000000001   x21 = 0x0000000000426c30
    x22 = 0x0000ffffb5a83018   x23 = 0x00000000004024cc
    x24 = 0x0000ffffb5739000   x25 = 0x0000000000000000
    x26 = 0x0000ffffe9262b98   x27 = 0x0000000000426c30
    x28 = 0x0000000000000000    fp = 0x0000ffffe9262840
     lr = 0x000000000040254c    sp = 0x0000ffffe9262830
     pc = 0x00000000004024bc
    Found by: given as instruction pointer in context
 1  crashme!main [crashme.cpp : 20 + 0x0]
    x19 = 0x0000ffffe9262b88   x20 = 0x0000000000000001
    x21 = 0x0000000000426c30   x22 = 0x0000ffffb5a83018
    x23 = 0x00000000004024cc   x24 = 0x0000ffffb5739000
    x25 = 0x0000000000000000   x26 = 0x0000ffffe9262b98
    x27 = 0x0000000000426c30   x28 = 0x0000000000000000
     fp = 0x0000ffffe9262840    sp = 0x0000ffffe9262840
     pc = 0x000000000040254c
    Found by: call frame info
 2  libc.so.6 + 0x2b22c
    x19 = 0x0000ffffe9262b88   x20 = 0x0000000000000001
    x21 = 0x0000000000426c30   x22 = 0x0000ffffb5a83018
    x23 = 0x00000000004024cc   x24 = 0x0000ffffb5739000
    x25 = 0x0000000000000000   x26 = 0x0000ffffe9262b98
    x27 = 0x0000000000426c30   x28 = 0x0000000000000000
     fp = 0x0000ffffe9262a10    sp = 0x0000ffffe9262a10
     pc = 0x0000ffffb55cb230
    Found by: call frame info

Loaded modules:
0x00400000 - 0x00416fff  crashme  ???  (main)
0xffffb55a0000 - 0xffffb5727fff  libc.so.6  ???  (WARNING: No symbols, libc.so.6, 1BDA541524B0ECED75C50F78AA99FA620)
0xffffb5750000 - 0xffffb5763fff  libgcc_s.so.1  ???
0xffffb5780000 - 0xffffb5806fff  libm.so.6  ???
0xffffb5820000 - 0xffffb5a18fff  libstdc++.so.6  ???
0xffffb5a48000 - 0xffffb5a71fff  ld-linux-aarch64.so.1  ???
0xffffb5a80000 - 0xffffb5a80fff  linux-gate.so  ???
2018-03-09 21:47:40: minidump.cc:5584: INFO: Minidump closing minidump
